0	0	8	9	9	9	9	10	9	12	9	14	10	12	12	12	12	14	14	14	14	15	21	21	24	24	24	25	
10	10	10	11	10	14	11	11	14	14	18	18	18	19	18	22	19	19	19	20	19	22	22	22	
0	0	0	1	3	3	5	5	8	8	
4	4	4	5	4	7	7	7	11	11	11	12	12	12	
3	4	4	4	6	6	9	11	10	10	10	11	10	12	10	16	16	16	16	19	18	18	18	19	23	23	23	25	23	26	29	31	30	30	30	31	30	32	31	31	41	41	41	43	43	43	43	47	46	46	46	47	
0	1	0	3	3	3	7	7	7	9	9	9	12	12	16	16	16	19	19	19	19	20	
1	1	1	2	4	4	4	5	4	6	5	6	6	6	10	10	13	14	14	14	17	17	20	20	20	21	20	22	20	26	21	21	21	22	25	26	26	26	32	32	35	35	35	36	45	45	45	46	45	48	48	48	49	50	50	50	55	55	
0	0	2	3	3	3	3	9	7	9	9	9	9	10	10	10	16	18	17	18	18	18	18	21	21	21	
2	2	7	7	9	10	10	10	10	11	11	11	15	16	16	16	16	17	22	22	25	25	25	26	25	27	27	27	28	28	28	29	
4	4	7	7	11	15	13	13	13	14	13	15	13	18	14	14	14	15	18	18	21	21	27	28	27	29	27	32	27	33	31	31	31	32	31	33	
11	11	11	12	11	15	12	12	15	15	15	21	17	17	17	18	17	19	17	21	17	22	19	19	19	20	19	21	19	22	21	21	21	22	32	32	32	35	35	35	35	36	39	39	39	40	
4	4	6	9	7	9	9	9	9	12	12	12	12	14	14	14	17	18	18	18	
4	4	4	6	6	6	11	11	11	14	12	14	13	13	13	14	13	17	17	17	
7	7	7	14	12	14	13	13	13	14	13	17	13	20	14	14	17	17	18	20	27	30	28	28	28	29	28	30	29	29	29	30	29	36	30	30	36	36	36	37	
2	2	2	4	4	4	12	12	12	13	12	14	13	13	13	14	13	15	13	17	14	14	17	17	
8	8	8	9	8	10	8	12	9	9	9	10	9	12	10	10	12	12	17	17	17	20	17	21	20	20	20	21	21	21	26	26	
1	1	1	2	6	7	7	7	11	11	17	17	17	18	17	19	18	18	18	19	18	21	21	21	
0	0	4	4	4	6	6	6	
1	1	1	2	2	2	6	6	12	12	12	13	12	17	17	17	17	20	20	20	25	25	25	26	30	30	30	31	30	32	30	34	31	32	31	34	32	32	32	33	32	34	34	34	
2	2	2	3	2	4	4	4	4	5	11	13	13	13	15	15	15	16	16	16	21	21	21	22	23	23	23	25	
3	3	3	5	5	5	5	6	5	9	8	9	9	9	9	10	16	17	17	17	
2	2	4	4	4	6	6	6	10	12	12	12	14	14	17	17	17	18	18	18	21	21	21	23	23	23	23	26	26	26	30	30	
1	1	4	5	8	8	10	10	10	11	11	11	
0	0	3	3	3	4	3	6	4	4	4	6	6	6	6	8	8	8	13	13	
5	7	7	7	7	9	9	9	9	12	9	14	12	12	12	13	12	14	14	14	
6	6	11	11	11	16	13	13	13	14	13	15	13	16	14	14	14	15	14	16	15	16	16	16	31	36	33	33	33	34	33	35	33	36	34	34	34	35	34	36	35	36	36	36	
0	1	1	1	1	3	3	3	3	7	7	7	16	16	18	18	18	19	18	20	19	19	19	20	20	20	
2	2	2	3	7	7	7	10	7	11	10	10	10	11	10	13	10	16	11	11	24	24	24	25	24	26	25	25	25	26	26	26	26	27	
0	0	0	1	0	2	0	7	7	7	7	8	7	11	11	11	11	16	11	17	15	16	16	16	16	17	21	21	25	26	29	29	
5	5	5	6	11	11	11	12	11	13	11	14	11	17	12	12	12	13	12	14	13	13	14	14	17	17	
0	0	2	2	2	3	2	5	5	5	9	10	10	10	14	14	14	18	15	18	15	22	18	18	18	19	18	22	22	22	22	23	
2	2	8	8	8	11	10	10	10	11	11	11	16	16	16	17	16	18	17	17	17	18	18	18	19	19	31	31	31	32	31	34	34	34	34	35	35	35	
4	5	5	5	5	6	5	7	6	7	7	7	10	10	17	18	18	18	20	20	20	21	23	23	23	24	24	24	26	26	
3	4	4	4	4	7	7	7	10	10	11	11	12	14	13	14	13	15	
5	5	5	8	7	8	8	8	8	11	10	10	10	11	11	11	11	15	13	15	15	15	15	16	15	20	18	20	19	20	20	20	30	31	31	31	34	34	38	38	
2	2	2	3	6	6	6	9	9	9	9	11	11	11	11	12	16	16	18	18	
1	1	4	4	4	5	4	9	8	8	8	9	12	12	16	16	19	19	22	22	22	23	22	24	23	23	23	24	23	27	26	26	26	27	27	27	
0	0	2	2	6	6	6	7	
0	1	1	1	1	2	1	8	7	7	7	8	7	12	7	14	11	11	11	12	11	14	14	14	19	19	24	24	
4	5	4	7	5	5	7	7	7	10	10	10	10	12	18	18	18	20	18	21	19	20	20	20	20	21	25	26	26	26	31	31	31	32	32	32	
1	1	4	4	9	9	9	10	19	19	21	24	26	27	27	27	30	30	30	32	32	32	32	37	34	34	34	35	34	36	34	37	34	40	36	37	37	37	39	39	39	40	40	40	43	43	
0	1	1	1	6	6	9	9	9	10	9	11	11	11	
5	5	5	9	8	8	8	9	8	13	9	9	11	11	11	12	11	13	11	16	16	16	22	22	22	25	22	26	25	25	25	26	25	30	29	29	29	30	29	33	29	34	30	30	32	32	32	33	32	34	32	37	37	37	42	42	42	43	
1	1	3	3	3	5	5	5	5	9	8	8	8	9	9	9	18	18	18	19	19	19	21	21	21	22	
0	0	2	6	6	6	6	9	9	9	9	13	12	12	12	13	
1	1	1	2	2	2	5	5	10	10	15	15	15	16	15	22	16	16	20	20	20	22	20	25	22	22	22	25	25	25	29	29	
1	1	1	5	5	5	9	9	9	14	13	13	13	14	13	17	14	14	17	17	17	20	20	20	20	23	20	26	23	23	23	26	26	26	30	30	30	34	
1	1	3	3	3	8	5	5	5	7	5	8	8	8	13	13	16	16	16	19	19	19	19	20	19	25	25	25	25	31	31	31	31	32	31	33	33	33	37	38	38	38	41	41	41	42	
0	0	3	3	3	7	7	7	10	10	10	11	11	11	
0	0	0	1	0	2	1	1	5	5	5	6	5	7	5	12	6	6	
1	1	8	8	8	12	8	13	12	12	12	13	12	14	12	17	13	13	16	16	16	17	17	17	19	19	19	21	21	21	24	24	27	27	31	31	31	32	35	35	35	36	36	36	
5	5	5	6	10	10	10	15	13	13	13	15	18	20	18	23	20	20	20	23	23	23	23	28	26	26	26	28	28	28	31	31	31	32	
5	5	5	6	5	8	5	9	7	8	8	8	8	9	8	15	15	15	15	18	15	19	18	18	18	19	18	23	19	19	21	23	23	23	25	25	25	26	39	39	42	42	42	43	43	43	
6	6	8	8	8	9	9	9	18	20	19	20	20	20	23	23	23	27	24	27	24	28	25	25	25	26	25	27	25	28	
3	5	5	5	11	11	11	18	18	18	18	19	18	23	20	23	21	23	22	22	22	23	22	24	23	23	
8	8	8	9	9	9	9	12	12	12	12	13	12	15	14	15	15	15	15	18	18	18	26	26	26	27	26	32	27	27	31	31	31	32	32	32	34	34	
1	4	2	2	2	4	2	5	4	4	10	10	10	11	10	15	13	13	13	15	15	15	26	26	26	29	28	29	29	29	29	30	
5	5	5	6	5	9	6	6	9	9	9	12	12	12	12	13	
8	8	8	14	12	12	12	13	12	14	12	15	12	19	13	14	13	15	14	14	19	19	28	28	28	33	31	31	31	33	31	34	32	33	32	34	33	33	38	38	38	39	
0	0	3	3	10	10	10	11	10	14	14	14	14	17	17	17	17	20	20	20	20	25	22	25	25	25	25	29	29	29	29	32	32	32	
5	5	5	6	5	7	5	8	5	12	8	8	12	12	12	13	19	19	19	20	19	21	20	20	20	21	21	21	24	24	24	25	24	30	34	34	34	37	37	37	42	42	42	43	43	43	
1	1	5	7	7	7	7	11	10	11	11	11	11	15	15	15	15	16	16	16	21	24	24	24	24	25	24	27	24	28	26	28	
3	3	5	5	12	12	17	17	17	18	17	19	17	21	19	19	21	21	25	25	27	27	27	31	31	31	31	32	31	34	33	34	34	34	34	35	34	36	
4	10	10	10	10	11	10	12	11	12	12	12	19	19	19	23	21	23	22	22	22	23	23	23	26	26	26	28	27	28	28	28	31	31	33	33	33	34	34	34	34	38	38	38	38	39	47	47	47	50	50	50	
0	0	2	2	2	3	10	10	10	11	10	12	10	14	10	15	11	11	11	12	12	12	12	14	13	14	13	15	14	14	14	15	17	17	21	25	22	22	22	25	23	23	23	25	24	25	28	28	45	45	
1	1	7	7	7	13	11	13	12	12	12	13	12	19	13	13	18	19	19	19	22	22	22	23	23	23	
4	4	4	5	4	6	4	10	4	11	6	6	8	11	10	10	10	11	10	12	11	11	19	19	19	20	20	20	29	29	29	30	29	31	30	30	30	31	
4	4	10	10	10	11	12	12	18	18	18	21	20	21	21	21	21	22	21	25	21	26	22	22	24	25	25	25	
1	1	9	9	9	10	9	14	14	14	14	16	14	17	16	16	16	17	16	18	17	17	28	28	28	29	29	29	29	30	29	33	32	32	32	33	
5	5	8	10	9	10	10	10	10	13	13	13	15	15	15	16	21	22	22	22	22	23	22	26	25	25	25	26	25	29	28	29	29	29	29	31	31	31	33	33	36	36	36	37	36	40	36	42	40	40	40	42	42	42	42	44	44	44	44	47	46	47	47	47	49	49	
8	8	8	10	8	11	10	10	10	11	10	12	10	13	10	17	11	11	11	13	12	13	13	13	17	17	17	18	26	26	26	27	
0	0	4	4	4	5	4	6	4	7	4	8	4	9	5	5	8	8	8	9	14	14	14	15	15	15	21	21	
5	5	7	7	7	9	14	14	14	15	14	17	14	19	15	15	15	17	17	17	17	19	19	19	
0	1	0	3	1	1	3	3	3	6	6	6	6	8	6	9	8	8	8	9	9	9	11	11	14	14	14	15	14	18	15	15	18	18	18	19	21	23	27	28	30	30	30	31	36	36	38	38	38	39	46	46	46	48	48	48	53	53	59	59	
3	4	4	4	10	10	10	12	12	12	15	15	15	19	18	18	18	19	19	19	19	22	22	22	
0	3	3	3	3	4	3	6	6	6	12	12	12	15	15	15	15	16	21	21	21	24	24	24	24	27	24	31	27	27	27	31	31	31	
5	5	5	11	11	11	11	15	13	15	15	15	23	24	23	25	24	24	24	25	24	26	24	29	24	30	29	29	29	30	29	33	30	30	33	33	
16	16	16	20	16	23	20	20	20	23	22	23	22	24	22	25	22	28	23	23	24	24	24	25	25	25	27	28	28	28	
8	8	11	11	11	12	11	15	12	12	15	15	15	21	21	21	21	22	21	24	21	27	24	24	24	27	27	27	27	29	29	29	
3	3	3	6	6	6	8	8	11	11	11	12	11	14	14	14	14	15	20	20	20	23	23	23	23	25	25	25	
5	8	8	8	8	15	14	14	14	15	14	18	15	15	18	18	18	22	20	22	22	22	22	26	26	26	26	32	26	33	32	32	32	33	41	41	41	42	41	45	41	47	45	45	45	47	46	47	47	47	47	49	47	52	49	49	49	50	49	52	52	52	62	62	62	63	
1	1	7	7	10	10	10	16	15	15	15	16	16	16	23	23	23	24	23	27	23	28	26	27	27	27	27	28	27	29	27	31	28	28	31	31	
3	3	3	4	9	9	9	12	12	12	12	14	14	14	14	17	14	19	16	17	17	17	17	19	17	24	18	19	19	19	19	24	23	23	23	24	23	29	29	29	29	30	33	33	
2	6	4	4	4	5	4	6	4	9	5	6	6	6	6	9	9	9	14	14	21	21	26	32	30	30	30	31	30	32	30	33	30	34	31	32	31	33	31	34	32	32	32	33	32	34	
4	4	4	5	9	9	9	13	13	13	13	19	16	19	17	19	18	18	18	19	18	21	19	19	
2	2	2	4	4	4	8	8	8	9	8	14	9	9	13	13	13	14	13	17	17	17	17	18	17	22	18	18	22	22	22	26	26	26	29	29	29	30	37	37	37	40	40	40	44	44	44	47	47	47	
1	1	5	5	5	6	5	9	9	9	9	12	12	12	12	17	17	17	17	18	17	20	20	20	
1	1	1	4	4	4	4	6	6	6	18	18	18	19	18	22	18	23	20	23	21	23	22	22	22	23	22	26	23	23	25	26	26	26	26	27	28	28	29	29	29	31	36	36	40	40	
15	15	15	22	18	18	18	19	18	20	18	21	18	22	18	25	19	19	19	21	19	22	20	20	20	21	20	22	22	22	25	25	31	31	
8	8	8	11	11	11	11	15	15	15	15	16	15	19	17	19	19	19	19	23	23	23	23	24	23	28	27	28	28	28	
0	0	4	4	4	10	8	8	8	9	8	10	8	11	8	15	9	9	9	10	10	10	23	23	23	24	
13	13	13	17	15	15	15	16	15	17	15	21	16	17	20	21	20	22	20	23	21	21	21	22	21	23	
6	6	10	10	10	12	10	14	12	12	12	13	12	14	12	17	14	14	17	17	23	23	23	24	24	24	
1	1	1	2	2	2	6	6	6	7	6	8	7	7	7	8	11	11	11	12	11	16	15	16	16	16	19	19	21	21	25	25	29	29	29	30	34	34	38	39	42	42	42	43	43	43	
0	0	4	4	9	9	9	12	15	15	15	16	15	22	18	18	18	20	18	22	20	20	20	22	21	22	22	22	26	26	
9	9	9	10	9	13	12	12	12	13	12	17	12	18	15	17	15	18	16	17	16	18	17	17	17	18	25	25	25	26	25	29	29	29	35	35	35	42	42	42	42	43	42	46	43	43	46	46	
3	3	6	6	10	10	10	11	10	15	11	11	11	15	13	15	14	14	14	15	
0	0	0	4	4	4	4	5	6	6	6	7	6	8	8	8	9	10	10	10	12	12	14	14	17	17	
4	4	4	5	4	10	7	10	9	9	9	10	9	13	10	10	13	13	17	17	
1	3	3	3	11	11	11	12	11	14	13	14	14	14	19	19	19	20	19	23	20	20	23	23	23	27	27	27	27	28	
5	6	5	7	6	6	9	9	11	13	12	13	13	13	15	15	18	18	18	19	19	19	
0	0	8	8	8	10	10	10	14	14	14	15	14	17	17	17	17	19	19	19	19	20	19	23	22	23	
1	1	5	5	5	9	9	9	9	10	13	13	13	17	17	17	17	18	21	21	21	22	22	22	25	25	25	28	28	28	32	32	32	33	33	33	
4	4	7	7	7	8	8	8	12	12	12	16	16	16	16	18	16	21	18	18	21	21	21	25	21	26	23	23	23	25	23	26	31	31	31	32	32	32	35	35	38	38	40	41	41	41	
0	0	0	1	1	1	1	5	5	5	5	8	8	8	8	12	12	12	12	13	15	15	24	24	26	29	27	27	27	29	29	29	29	31	31	31	31	35	35	35	35	38	35	41	38	38	38	41	41	41	43	43	
5	7	7	7	7	9	7	13	9	9	11	11	11	12	11	13	12	12	12	13	13	13	13	16	15	16	16	16	18	18	20	20	20	21	24	24	28	30	28	33	29	30	29	33	33	33	40	40	45	45	
5	5	5	7	13	13	18	18	18	19	18	21	18	23	18	25	19	19	23	23	23	24	23	25	23	26	23	30	24	25	24	26	25	25	25	26	34	34	38	38	38	39	
0	0	3	3	3	4	
6	6	10	10	10	11	16	16	16	18	18	18	27	27	27	28	28	28	35	35	39	39	39	40	39	41	39	42	46	46	50	50	50	51	50	56	54	54	54	55	54	56	54	57	54	58	54	61	55	56	56	56	56	57	56	58	61	61	61	62	64	66	64	68	66	66	66	67	66	68	
5	5	5	6	5	9	9	9	12	12	12	14	12	15	14	14	14	15	14	18	15	15	15	18	18	18	22	22	25	25	25	26	
0	0	3	3	3	6	6	6	6	7	6	8	12	12	12	13	12	15	15	15	18	20	20	20	20	25	25	25	27	29	28	29	29	29	
6	6	6	7	6	10	10	10	10	13	12	13	13	13	13	16	13	17	15	16	15	17	16	16	16	17	17	17	22	23	29	29	29	31	31	31	
4	4	7	7	7	8	13	13	13	14	13	15	14	14	14	15	15	15	19	19	19	21	19	25	20	21	21	21	21	24	21	25	24	24	24	25	25	25	
3	3	3	4	4	4	6	8	8	8	21	23	22	23	23	23	23	25	25	25	25	26	25	30	30	30	30	31	36	36	36	39	36	41	39	39	39	40	39	41	39	43	41	41	43	43	43	45	45	45	45	46	51	51	
5	10	6	10	7	7	7	9	7	10	8	8	8	9	8	10	9	9	9	10	9	16	10	10	16	16	21	22	26	26	26	27	39	40	40	40	46	50	47	47	47	50	48	50	49	49	49	50	49	51	50	50	50	51	
2	2	2	9	7	7	7	8	7	9	8	8	8	9	9	9	18	18	24	24	24	25	24	26	25	26	26	26	
10	10	10	11	10	13	12	13	13	13	13	14	13	20	20	20	20	21	20	23	23	23	23	24	23	28	28	28	31	31	34	34	34	40	36	40	37	40	39	39	39	40	39	43	43	43	
4	4	4	5	4	6	4	10	5	5	5	10	6	10	8	8	8	9	8	10	8	11	8	13	9	10	10	10	13	13	13	16	16	16	24	24	28	28	32	32	32	33	38	38	
0	0	0	1	0	6	6	6	6	13	11	11	11	12	11	13	13	13	
7	7	7	10	10	10	10	13	13	13	13	18	15	18	17	17	17	18	17	22	18	18	22	22	22	23	
2	2	2	3	2	7	3	3	7	7	15	15	15	16	15	18	15	22	18	18	18	22	20	22	22	22	22	27	27	27	
2	2	2	3	2	6	2	9	6	6	6	7	6	9	8	9	9	9	9	10	15	15	18	18	18	19	21	21	21	22	22	22	26	26	33	33	35	35	
0	0	0	1	0	7	1	1	6	6	6	7	6	10	6	12	7	7	10	10	10	12	12	12	12	16	16	16	16	17	25	25	28	28	28	29	29	29	34	34	37	37	37	40	40	40	47	50	49	50	50	50	
4	4	4	7	6	7	7	7	7	9	12	15	15	15	17	17	17	19	19	19	19	20	19	23	20	20	
3	3	3	4	3	7	7	7	7	8	7	11	11	11	11	12	15	15	15	16	15	19	19	19	19	20	19	21	20	20	30	30	30	32	30	33	32	32	32	33	33	33	37	37	
4	4	4	5	4	8	8	8	8	14	13	13	13	14	13	15	13	16	13	19	14	14	15	15	18	19	19	19	19	23	22	22	22	23	23	23	29	29	29	30	36	36	36	37	41	41	
8	8	8	10	8	12	10	10	10	12	12	12	12	13	22	22	25	25	25	28	28	28	28	29	28	30	29	29	29	30	30	30	31	32	
3	3	3	5	5	5	5	6	5	9	9	9	9	15	12	15	15	15	15	16	
8	8	8	11	11	11	11	14	14	14	19	19	19	20	19	21	19	22	20	20	20	21	20	22	
5	6	6	6	8	8	8	12	11	11	11	12	12	12	16	16	16	20	20	20	22	22	22	23	22	24	26	26	26	28	
1	1	4	4	4	5	4	11	11	11	11	12	11	13	19	19	19	22	22	22	22	23	22	24	22	27	24	24	27	27	27	30	
3	3	5	5	5	7	7	7	7	8	7	11	8	8	8	11	11	11	17	17	17	19	19	19	24	24	24	25	25	25	32	32	32	33	33	33	35	36	36	36	38	38	
9	9	9	10	9	11	9	15	9	16	10	11	11	11	13	13	13	14	13	15	13	16	13	17	14	14	14	15	14	16	14	17	15	15	24	24	24	25	24	27	27	27	27	29	29	29	41	41	43	44	44	44	50	50	
4	4	12	12	12	15	15	15	15	19	15	20	16	19	17	17	17	19	17	20	19	19	
4	4	4	7	7	7	7	8	8	8	
0	0	8	8	8	10	8	14	10	10	10	11	10	14	14	14	14	18	16	18	18	18	
5	5	5	8	5	10	8	8	8	9	8	10	10	10	10	12	10	16	13	16	16	16	18	18	25	25	25	26	26	26	35	38	38	38	38	41	41	41	41	42	41	45	43	43	43	45	45	45	
0	0	2	2	2	3	2	8	3	3	6	8	8	8	19	19	19	25	23	23	23	24	23	25	25	25	25	26	25	29	29	29	
1	1	1	4	4	4	10	10	10	13	13	13	13	17	17	17	17	18	17	21	18	21	21	21	21	24	
6	6	6	7	6	12	10	12	12	12	12	13	12	14	12	17	12	18	14	14	17	17	17	18	18	18	21	21	21	22	29	29	29	33	31	33	33	33	33	34	33	37	33	40	37	37	37	40	40	40	40	41	40	42	
3	5	5	5	5	6	5	7	5	9	9	9	9	10	14	14	24	24	24	25	24	26	25	25	25	26	26	26	
4	4	4	5	4	8	5	5	8	8	8	11	8	15	10	10	10	11	10	15	10	16	13	15	15	15	15	16	24	24	24	25	24	27	34	34	34	35	
5	5	5	8	8	8	8	10	8	12	10	10	10	12	12	12	12	15	
0	0	0	1	5	5	5	6	5	8	
2	2	5	5	9	9	9	10	9	13	10	10	10	13	13	13	13	17	17	17	17	21	21	21	21	26	26	26	29	29	29	30	29	31	
2	2	7	7	7	8	7	9	9	9	12	12	15	15	15	22	19	19	19	22	21	22	22	22	22	23	
4	4	4	5	4	6	5	5	5	6	12	12	12	15	15	15	15	17	15	18	17	17	17	18	18	18	21	21	
1	1	1	2	1	4	4	4	7	7	7	8	7	9	7	10	7	13	9	10	10	10	16	16	16	17	16	18	16	19	16	20	17	17	17	18	17	19	17	20	18	18	18	19	19	19	26	26	32	32	32	33	53	53	53	54	
5	5	5	6	5	8	8	8	8	9	8	10	10	10	10	11	
2	2	8	8	8	9	8	15	12	14	12	15	13	14	13	15	14	14	14	15	20	20	20	21	21	21	25	25	
2	2	2	4	2	5	4	4	4	5	4	8	8	8	
8	8	11	11	11	13	13	13	13	17	15	15	15	17	17	17	17	19	17	20	19	20	25	25	25	26	25	28	25	29	26	26	28	28	28	29	28	35	29	29	33	35	35	35	35	37	42	42	42	43	
0	0	6	6	6	9	9	9	14	14	14	16	14	17	16	16	16	17	16	18	
2	2	2	3	2	9	9	9	12	12	16	19	16	20	18	18	18	19	18	20	18	23	19	19	19	20	23	23	26	26	32	33	32	34	32	39	33	33	33	34	38	38	38	39	43	43	43	45	
10	11	11	11	15	15	15	17	17	17	17	19	19	19	19	20	19	23	23	23	29	31	31	31	31	34	31	35	34	34	34	35	39	39	39	40	39	41	40	40	40	41	41	41	
1	1	1	2	1	5	5	5	5	9	9	9	9	13	12	12	12	13	19	19	19	20	20	20	23	23	
6	6	6	7	6	10	7	7	10	10	17	21	20	21	21	21	21	22	21	24	23	24	24	24	24	25	
5	5	5	6	5	7	5	8	6	6	11	11	11	13	13	13	13	16	16	16	16	22	18	18	22	22	22	25	25	25	
1	1	1	4	4	4	4	9	8	8	8	9	9	9	11	11	16	16	
5	5	5	10	5	11	7	10	9	9	9	10	9	11	9	14	10	10	14	14	14	18	18	18	20	20	
5	5	5	6	6	6	8	8	10	10	10	11	10	12	
1	7	5	7	6	6	6	7	6	8	6	12	7	7	12	12	14	14	14	15	15	15	23	24	24	24	24	26	26	26	29	32	30	30	30	31	30	32	31	32	
4	4	8	8	8	13	13	13	13	14	13	20	19	20	20	20	20	21	20	22	20	23	21	21	21	22	22	22	29	29	29	30	
2	3	3	3	3	7	7	7	7	10	10	10	10	11	10	13	12	13	13	13	18	18	23	23	23	24	
9	9	9	14	14	14	14	17	16	16	16	17	17	17	17	22	19	22	21	21	21	22	21	25	22	22	24	25	25	25	30	30	30	33	33	33	
2	2	7	7	13	13	13	16	16	16	21	21	21	23	21	25	23	23	23	25	25	25	25	28	27	28	28	28	28	29	32	32	32	33	33	33	
0	0	4	4	4	8	4	9	6	8	6	9	8	8	8	9	8	10	8	13	13	13	13	17	17	17	17	19	19	19	19	20	24	24	27	27	28	28	31	31	42	42	49	49	49	50	49	52	50	52	51	52	52	52	
1	1	1	4	4	4	4	7	7	7	7	13	7	14	13	13	13	14	13	20	14	14	17	20	20	20	20	24	20	27	24	24	24	27	27	27	27	30	29	30	30	30	30	31	36	36	36	38	38	38	43	43	
19	19	22	22	31	31	31	33	33	33	33	35	35	35	35	38	37	37	37	38	40	43	43	43	43	45	45	45	49	50	50	50	55	55	55	57	57	57	61	61	61	62	61	67	62	62	65	65	65	67	65	69	67	67	69	69	69	71	69	72	71	71	71	72	71	74	74	74	80	80	80	83	82	83	83	83	83	85	85	85	85	89	88	89	89	89	89	95	95	95	95	96	95	101	100	100	100	101	101	101	108	108	108	109	108	110	109	109	109	110	110	110	
0	0	3	3	3	6	6	6	6	10	10	10	10	13	10	17	13	13	17	17	17	21	21	21	
3	3	12	12	12	13	12	14	13	13	13	14	13	20	20	20	20	23	20	24	23	23	23	24	24	24	
7	7	7	10	10	10	14	18	16	16	16	17	16	18	17	17	17	18	17	19	18	18	24	26	25	25	25	26	
4	4	7	7	7	13	12	12	12	13	12	14	12	15	13	13	14	14	21	21	21	22	21	24	22	22	29	29	32	33	32	34	33	33	33	34	34	34	38	38	38	39	38	43	43	43	46	46	
8	8	8	14	14	14	18	19	18	21	19	19	19	21	21	21	21	22	21	23	23	23	23	26	26	26	26	27	27	27	
5	5	5	6	9	9	12	12	12	14	12	15	14	14	14	15	19	25	21	21	21	25	22	25	25	25	25	26	25	27	25	29	29	29	29	30	29	33	33	33	40	40	45	45	45	46	46	46	
3	3	3	5	5	5	10	13	12	12	12	13	12	14	12	19	13	13	18	19	19	19	
8	8	8	9	8	10	8	13	13	13	13	17	13	18	17	17	17	18	18	18	22	22	29	29	29	30	30	30	30	31	30	36	30	37	35	36	35	37	36	36	36	37	37	37	45	45	45	46	46	46	48	48	52	52	52	53	
1	1	1	2	1	4	2	2	4	4	11	11	14	15	14	16	15	15	
1	1	1	2	1	4	2	2	2	4	4	4	4	5	8	8	15	15	24	24	24	26	26	26	26	29	28	29	33	33	33	35	35	35	35	38	37	38	38	38	45	46	46	46	46	48	46	50	48	48	48	50	48	51	50	50	50	51	
7	7	9	9	14	14	14	15	14	16	14	18	16	16	16	18	17	17	17	18	17	24	23	23	23	24	23	27	24	24	27	27	27	33	30	30	33	33	41	41	41	44	42	44	44	44	
0	0	2	2	4	6	6	6	13	13	13	14	13	15	14	15	15	15	18	18	22	22	22	23	22	24	
5	5	5	12	9	12	10	12	11	11	11	12	11	15	12	12	14	15	15	15	15	17	20	20	
1	1	3	3	3	6	5	6	10	10	17	17	17	18	17	20	19	20	20	20	20	21	23	23	23	25	25	25	27	27	30	30	30	31	
5	5	5	6	6	6	9	9	9	10	9	13	10	10	10	13	13	13	20	23	21	23	22	22	22	23	23	23	27	27	29	29	29	33	33	33	36	36	38	38	38	41	41	41	
5	5	5	8	8	8	8	12	12	12	21	21	21	24	24	24	24	25	24	27	26	27	27	27	27	33	30	30	30	33	32	32	32	33	33	33	
5	5	10	11	11	11	15	15	15	17	15	18	17	18	27	27	27	33	33	33	33	39	36	36	36	37	36	38	36	39	36	40	37	38	37	39	38	38	38	39	39	39	
0	0	0	1	0	4	4	4	4	8	8	8	12	12	12	13	19	19	19	20	19	21	20	20	20	21	20	22	21	21	
1	1	1	3	1	4	3	3	3	4	4	4	8	8	16	16	16	17	16	19	16	22	19	19	25	25	25	27	27	27	27	28	32	32	32	34	32	35	34	34	34	35	35	35	41	41	41	42	41	43	41	45	
4	4	4	7	7	7	7	8	7	13	7	14	13	13	13	14	13	17	17	17	
5	5	5	8	8	8	8	11	11	11	11	18	14	16	14	18	16	16	16	18	16	22	18	18	21	21	21	22	21	23	21	28	22	22	23	23	28	28	31	31	31	32	
3	3	5	5	5	7	7	7	7	9	8	9	
3	3	8	8	8	9	8	10	8	11	8	12	9	9	11	12	12	12	14	14	14	16	14	17	15	15	15	16	15	17	27	27	32	32	
0	0	4	4	4	5	5	5	8	8	8	9	8	10	8	11	10	10	10	11	
6	9	7	9	9	9	9	13	11	13	12	13	13	13	13	15	13	16	15	15	15	16	16	16	22	22	26	29	29	29	29	32	32	32	
6	6	6	7	6	9	6	13	9	9	9	10	9	11	9	13	13	13	13	19	16	16	16	19	19	19	21	21	21	27	24	24	24	27	27	27	29	29	
2	2	5	5	5	6	9	9	9	10	10	10	10	11	14	15	15	15	19	19	21	21	24	25	25	25	25	27	27	27	29	29	35	37	36	36	36	37	37	37	
0	0	0	1	0	2	2	2	4	4	10	12	12	12	12	13	12	15	12	18	15	15	15	18	18	18	21	21	21	22	
0	0	0	2	2	2	2	4	4	4	
3	3	3	4	3	6	6	6	6	7	11	11	15	15	15	16	16	16	
6	6	6	7	12	12	12	13	12	19	17	17	17	18	17	19	17	21	17	24	18	18	18	19	24	24	
5	5	5	8	5	11	8	8	8	11	11	11	11	16	15	16	16	16	16	18	16	19	
